// Jest Snapshot v1, https://goo.gl/fbAQLP

exports[`matches snapshot 1`] = `null`;

exports[`visible matches snapshot 1`] = `
<div
  className="sc-bxivhb iiTeXA"
>
  <div
    className="sc-htpNat kvYCFI"
  >
    <div
      className="sc-bdVaJa dyuhBQ"
    />
    <div
      className="sc-bwzfXH jnRrig"
    />
  </div>
</div>
`;
