// Jest Snapshot v1, https://goo.gl/fbAQLP

exports[`matches snapshot 1`] = `
<div
  className="sc-dnqmqq dmleZ"
>
  <div
    className="sc-EHOje kpEDrO"
  >
    <header
      className="sc-bZQynM fcjMJK"
    >
      <svg
        className="sc-htoDjs kBxSgY"
        height="28px"
        version="1.1"
        viewBox="0 0 29 28"
        width="29px"
        xmlns="http://www.w3.org/2000/svg"
      >
        <g
          fill="none"
          fillRule="evenodd"
          id="Design"
          stroke="none"
          strokeWidth="1"
        >
          <g
            fill="#323c46"
            id="00-1-1-Log-In"
            transform="translate(-61.000000, -39.000000)"
          >
            <g
              id="Left-panel"
            >
              <g
                id="Logo"
                transform="translate(61.000000, 39.000000)"
              >
                <path
                  d="M0.078,27 L0.078,0.058 L16.95,0.058 L16.95,4.998 L5.322,4.998 L5.322,11.154 L15.848,11.154 L15.848,15.828 L5.322,15.828 L5.322,22.06 L16.95,22.06 L16.95,27 L0.078,27 Z M21.548,23.808 C21.548,22.8453285 21.8836633,22.0283367 22.555,21.357 C23.2263367,20.6856633 24.0433285,20.35 25.006,20.35 C25.4873357,20.35 25.9433312,20.4386658 26.374,20.616 C26.8046688,20.7933342 27.1783317,21.0403317 27.495,21.357 C27.8116682,21.6736682 28.0586658,22.0409979 28.236,22.459 C28.4133342,22.8770021 28.502,23.3266643 28.502,23.808 C28.502,24.2893357 28.4133342,24.7389979 28.236,25.157 C28.0586658,25.5750021 27.8116682,25.9423317 27.495,26.259 C27.1783317,26.5756682 26.8046688,26.8226658 26.374,27 C25.9433312,27.1773342 25.4873357,27.266 25.006,27.266 C24.0433285,27.266 23.2263367,26.9303367 22.555,26.259 C21.8836633,25.5876633 21.548,24.7706715 21.548,23.808 Z"
                  id="E."
                />
              </g>
            </g>
          </g>
        </g>
      </svg>
      <div
        className="sc-htpNat kuKZYD"
        onClick={[Function]}
      >
        <div
          className="sc-bdVaJa kDrfBQ"
        >
          F O
        </div>
        <span
          className="sc-bxivhb iLRVoi sc-bwzfXH dRnpQY"
        >
          Foo Bar
        </span>
        <svg
          className={undefined}
          height="5px"
          onClick={undefined}
          version="1.1"
          viewBox="0 0 10 5"
          width="10px"
          xmlns="http://www.w3.org/2000/svg"
        >
          <g
            fill="none"
            fillRule="evenodd"
            id="–-Styleguide"
            stroke="none"
            strokeWidth="1"
          >
            <g
              fill="#a9aeb4"
              id="Styleguide"
              transform="translate(-243.000000, -2107.000000)"
            >
              <g
                id="Dropdown"
                transform="translate(120.000000, 1980.000000)"
              >
                <g
                  id="Profile"
                  transform="translate(0.000000, 109.000000)"
                >
                  <g
                    id="dropdown"
                    transform="translate(123.000000, 18.000000)"
                  >
                    <polygon
                      id="Fill-2"
                      points="0 0 5 5 10 0"
                    />
                  </g>
                </g>
              </g>
            </g>
          </g>
        </svg>
      </div>
    </header>
    <main
      className="sc-gzVnrw hRUIiW"
    />
  </div>
</div>
`;
