// Jest Snapshot v1, https://goo.gl/fbAQLP

exports[`active matches snapshot 1`] = `
<svg
  className="sc-bdVaJa fVCJpx"
  height="13px"
  onClick={undefined}
  version="1.1"
  viewBox="0 0 17 13"
  width="17px"
  xmlns="http://www.w3.org/2000/svg"
>
  <g
    fill="none"
    fillRule="evenodd"
    id="Design"
    stroke="none"
    strokeWidth="1"
  >
    <g
      id="01-1-1-Dashboard"
      transform="translate(-1303.000000, -174.000000)"
    >
      <g
        id="Switcher"
        transform="translate(1267.000000, 169.000000)"
      >
        <g
          id="list-view"
          transform="translate(32.000000, 0.000000)"
        >
          <polygon
            id="Stroke-1"
            points="0 0 23.9999985 0 23.9999985 23.9999985 0 23.9999985"
            stroke="#000000"
            strokeOpacity="0.00784313771"
            strokeWidth="1.33333335e-11"
          />
          <path
            d="M3.99999976,17.9999989 L20.9999987,17.9999989 L20.9999987,11.9999993 L3.99999976,11.9999993 L3.99999976,17.9999989 Z M3.99999976,4.9999997 L3.99999976,10.9999993 L20.9999987,10.9999993 L20.9999987,4.9999997 L3.99999976,4.9999997 Z"
            fill="#323c46"
            id="Fill-2"
          />
        </g>
      </g>
    </g>
  </g>
</svg>
`;

exports[`matches snapshot 1`] = `
<svg
  className="sc-bdVaJa fVCJpx"
  height="13px"
  onClick={undefined}
  version="1.1"
  viewBox="0 0 17 13"
  width="17px"
  xmlns="http://www.w3.org/2000/svg"
>
  <g
    fill="none"
    fillRule="evenodd"
    id="Design"
    stroke="none"
    strokeWidth="1"
  >
    <g
      id="01-1-1-Dashboard"
      transform="translate(-1303.000000, -174.000000)"
    >
      <g
        id="Switcher"
        transform="translate(1267.000000, 169.000000)"
      >
        <g
          id="list-view"
          transform="translate(32.000000, 0.000000)"
        >
          <polygon
            id="Stroke-1"
            points="0 0 23.9999985 0 23.9999985 23.9999985 0 23.9999985"
            stroke="#000000"
            strokeOpacity="0.00784313771"
            strokeWidth="1.33333335e-11"
          />
          <path
            d="M3.99999976,17.9999989 L20.9999987,17.9999989 L20.9999987,11.9999993 L3.99999976,11.9999993 L3.99999976,17.9999989 Z M3.99999976,4.9999997 L3.99999976,10.9999993 L20.9999987,10.9999993 L20.9999987,4.9999997 L3.99999976,4.9999997 Z"
            fill="#d9dce1"
            id="Fill-2"
          />
        </g>
      </g>
    </g>
  </g>
</svg>
`;
